…
hlatypes
```

    # A tibble: 234 x 3
       Patient            locus allele 
       <chr>              <chr> <chr>  
     1 SRR650130_B100.sra HLA-A A*31:01
     2 SRR650130_B100.sra HLA-A A*24:02
     3 SRR650130_B100.sra HLA-B B*07:02
     4 SRR650130_B100.sra HLA-B B*15:25
     5 SRR650130_B100.sra HLA-C C*07:02
     6 SRR650130_B100.sra HLA-C C*03:04
     7 SRR650131_B101.sra HLA-A A*02:03
     8 SRR650131_B101.sra HLA-A A*11:01
     9 SRR650131_B101.sra HLA-B B*58:01
    10 SRR650131_B101.sra HLA-B B*40:01
    # … with 224 more rows
…
plan(multisession, workers = 8)

allele_freqs <- hlatypes %>% 
    drop_na() %>%
    distinct(locus, allele) %>%
    mutate(data = future_map(allele, get_frequency)) %>%
    unnest(data) %>%
    group_by(locus, allele) %>%
    summarise(wf = weighted.mean(f, sample_size)) %>%
    ungroup()

allele_freqs
```

    # A tibble: 64 x 3
       locus allele         wf
       <chr> <chr>       <dbl>
     1 HLA-A A*01:01   0.0284 
     2 HLA-A A*02:01   0.112  
     3 HLA-A A*02:03   0.0367 
     4 HLA-A A*02:06   0.0455 
     5 HLA-A A*02:07   0.0936 
     6 HLA-A A*02:133 NA      
     7 HLA-A A*03:01   0.0243 
     8 HLA-A A*11:01   0.227  
     9 HLA-A A*23:01   0.00402
    10 HLA-A A*24:02   0.152  
    # … with 54 more rows
…
